lab8/lab8.2.1/cp0.vcd
$date
	Sun Oct 27 18:18:10 2024
$end
$version
	Icarus Verilog
$end
$timescale
	1s
$end
$scope module cp0_test $end
$var wire 32 ! rd_data [31:0] $end
$var wire 1 " TakenInterrupt $end
$var wire 30 # EPC [29:0] $end
$var reg 1 $ ERET $end
$var reg 1 % MTC0 $end
$var reg 1 & TimerInterrupt $end
$var reg 1 ' clock $end
$var reg 30 ( next_pc [29:0] $end
$var reg 5 ) regnum [4:0] $end
$var reg 1 * reset $end
$var reg 32 + wr_data [31:0] $end
$scope module c0 $end
$var wire 1 $ ERET $end
$var wire 1 % MTC0 $end
$var wire 1 " TakenInterrupt $end
$var wire 1 & TimerInterrupt $end
$var wire 1 , and_out_1 $end
$var wire 1 - and_out_2 $end
$var wire 1 ' clock $end
$var wire 30 . next_pc [29:0] $end
$var wire 5 / regnum [4:0] $end
$var wire 1 * reset $end
$var wire 32 0 wr_data [31:0] $end
$var wire 32 1 user_status [31:0] $end
$var wire 30 2 taken_interrupt_out [29:0] $end
$var wire 32 3 status_register [31:0] $end
$var wire 32 4 rd_data [31:0] $end
$var wire 1 5 exception_level $end
$var wire 32 6 decorder_out [31:0] $end
$var wire 32 7 cause_register [31:0] $end
$var wire 30 8 EPC [29:0] $end
$scope module EPC_register $end
$var wire 1 ' clk $end
$var wire 1 9 enable $end
$var wire 1 * reset $end
$var wire 30 : d [29:0] $end
$var reg 30 ; q [29:0] $end
$upscope $end
$scope module decorder_32 $end
$var wire 1 % enable $end
$var wire 5 < in [4:0] $end
$var wire 32 = out [31:0] $end
$upscope $end
$scope module exception_level_register $end
$var wire 1 ' clk $end
$var wire 1 > d $end
$var wire 1 " enable $end
$var wire 1 ? reset $end
$var reg 1 5 q $end
$upscope $end
$scope module rdmux $end
$var wire 32 @ A [31:0] $end
$var wire 32 A B [31:0] $end
$var wire 32 B C [31:0] $end
$var wire 32 C D [31:0] $end
$var wire 32 D E [31:0] $end
$var wire 32 E F [31:0] $end
$var wire 32 F G [31:0] $end
$var wire 32 G H [31:0] $end
$var wire 32 H I [31:0] $end
$var wire 32 I J [31:0] $end
$var wire 32 J K [31:0] $end
$var wire 32 K L [31:0] $end
$var wire 32 L M [31:0] $end
$var wire 32 M N [31:0] $end
$var wire 32 N O [31:0] $end
$var wire 32 O P [31:0] $end
$var wire 32 P a [31:0] $end
$var wire 32 Q b [31:0] $end
$var wire 32 R c [31:0] $end
$var wire 32 S d [31:0] $end
$var wire 32 T e [31:0] $end
$var wire 32 U f [31:0] $end
$var wire 32 V g [31:0] $end
$var wire 32 W h [31:0] $end
$var wire 32 X i [31:0] $end
$var wire 32 Y j [31:0] $end
$var wire 32 Z k [31:0] $end
$var wire 32 [ l [31:0] $end
$var wire 32 \ m [31:0] $end
$var wire 32 ] n [31:0] $end
$var wire 32 ^ o [31:0] $end
$var wire 32 _ p [31:0] $end
$var wire 5 ` sel [4:0] $end
$var wire 32 a wlower [31:0] $end
$var wire 32 b wUPPER [31:0] $end
$var wire 32 c out [31:0] $end
$scope module m0 $end
$var wire 32 d A [31:0] $end
$var wire 32 e B [31:0] $end
$var wire 32 f C [31:0] $end
$var wire 32 g D [31:0] $end
$var wire 32 h E [31:0] $end
$var wire 32 i F [31:0] $end
$var wire 32 j G [31:0] $end
$var wire 32 k H [31:0] $end
$var wire 32 l I [31:0] $end
$var wire 32 m J [31:0] $end
$var wire 32 n K [31:0] $end
$var wire 32 o L [31:0] $end
$var wire 32 p M [31:0] $end
$var wire 32 q N [31:0] $end
$var wire 32 r O [31:0] $end
$var wire 32 s P [31:0] $end
$var wire 4 t sel [3:0] $end
$var wire 32 u wOP [31:0] $end
$var wire 32 v wMNOP [31:0] $end
$var wire 32 w wMN [31:0] $end
$var wire 32 x wKL [31:0] $end
$var wire 32 y wIJKLMNOP [31:0] $end
$var wire 32 z wIJKL [31:0] $end
$var wire 32 { wIJ [31:0] $end
$var wire 32 | wGH [31:0] $end
$var wire 32 } wEFGH [31:0] $end
$var wire 32 ~ wEF [31:0] $end
$var wire 32 !" wCD [31:0] $end
$var wire 32 "" wABCDEFGH [31:0] $end
$var wire 32 #" wABCD [31:0] $end
$var wire 32 $" wAB [31:0] $end
$var wire 32 %" out [31:0] $end
$scope module mAB $end
$var wire 32 &" A [31:0] $end
$var wire 32 '" B [31:0] $end
$var wire 32 (" out [31:0] $end
$var wire 1 )" sel $end
$var wire 32 *" temp1 [31:0] $end
$var wire 32 +" temp2 [31:0] $end
$upscope $end
$scope module mABCD $end
$var wire 32 ," A [31:0] $end
$var wire 32 -" out [31:0] $end
$var wire 1 ." sel $end
$var wire 32 /" temp1 [31:0] $end
$var wire 32 0" temp2 [31:0] $end
$var wire 32 1" B [31:0] $end
$upscope $end
$scope module mABCDEFGH $end
$var wire 32 2" A [31:0] $end
$var wire 32 3" out [31:0] $end
$var wire 1 4" sel $end
$var wire 32 5" temp1 [31:0] $end
$var wire 32 6" temp2 [31:0] $end
$var wire 32 7" B [31:0] $end
$upscope $end
$scope module mCD $end
$var wire 32 8" A [31:0] $end
$var wire 32 9" B [31:0] $end
$var wire 32 :" out [31:0] $end
$var wire 1 ;" sel $end
$var wire 32 <" temp1 [31:0] $end
$var wire 32 =" temp2 [31:0] $end
$upscope $end
$scope module mEF $end
$var wire 32 >" A [31:0] $end
$var wire 32 ?" B [31:0] $end
$var wire 32 @" out [31:0] $end
$var wire 1 A" sel $end
$var wire 32 B" temp1 [31:0] $end
$var wire 32 C" temp2 [31:0] $end
$upscope $end
$scope module mEFGH $end
$var wire 32 D" A [31:0] $end
$var wire 32 E" out [31:0] $end
$var wire 1 F" sel $end
$var wire 32 G" temp1 [31:0] $end
$var wire 32 H" temp2 [31:0] $end
$var wire 32 I" B [31:0] $end
$upscope $end
$scope module mGH $end
$var wire 32 J" A [31:0] $end
$var wire 32 K" B [31:0] $end
$var wire 32 L" out [31:0] $end
$var wire 1 M" sel $end
$var wire 32 N" temp1 [31:0] $end
$var wire 32 O" temp2 [31:0] $end
$upscope $end
$scope module mIJ $end
$var wire 32 P" A [31:0] $end
$var wire 32 Q" B [31:0] $end
$var wire 32 R" out [31:0] $end
$var wire 1 S" sel $end
$var wire 32 T" temp1 [31:0] $end
$var wire 32 U" temp2 [31:0] $end
$upscope $end
$scope module mIJKL $end
$var wire 32 V" A [31:0] $end
$var wire 32 W" out [31:0] $end
$var wire 1 X" sel $end
$var wire 32 Y" temp1 [31:0] $end
$var wire 32 Z" temp2 [31:0] $end
$var wire 32 [" B [31:0] $end
$upscope $end
$scope module mIJKLMNOP $end
$var wire 32 \" A [31:0] $end
$var wire 32 ]" out [31:0] $end
$var wire 1 ^" sel $end
$var wire 32 _" temp1 [31:0] $end
$var wire 32 `" temp2 [31:0] $end
$var wire 32 a" B [31:0] $end
$upscope $end
$scope module mKL $end
$var wire 32 b" A [31:0] $end
$var wire 32 c" B [31:0] $end
$var wire 32 d" out [31:0] $end
$var wire 1 e" sel $end
$var wire 32 f" temp1 [31:0] $end
$var wire 32 g" temp2 [31:0] $end
$upscope $end
$scope module mMN $end
$var wire 32 h" A [31:0] $end
$var wire 32 i" B [31:0] $end
$var wire 32 j" out [31:0] $end
$var wire 1 k" sel $end
$var wire 32 l" temp1 [31:0] $end
$var wire 32 m" temp2 [31:0] $end
$upscope $end
$scope module mMNOP $end
$var wire 32 n" A [31:0] $end
$var wire 32 o" out [31:0] $end
$var wire 1 p" sel $end
$var wire 32 q" temp1 [31:0] $end
$var wire 32 r" temp2 [31:0] $end
$var wire 32 s" B [31:0] $end
$upscope $end
$scope module mOP $end
$var wire 32 t" A [31:0] $end
$var wire 32 u" B [31:0] $end
$var wire 32 v" out [31:0] $end
$var wire 1 w" sel $end
$var wire 32 x" temp1 [31:0] $end
$var wire 32 y" temp2 [31:0] $end
$upscope $end
$scope module mfinal $end
$var wire 32 z" A [31:0] $end
$var wire 32 {" B [31:0] $end
$var wire 32 |" out [31:0] $end
$var wire 1 }" sel $end
$var wire 32 ~" temp1 [31:0] $end
$var wire 32 !# temp2 [31:0] $end
$upscope $end
$upscope $end
$scope module m1 $end
$var wire 32 "# A [31:0] $end
$var wire 32 ## B [31:0] $end
$var wire 32 $# C [31:0] $end
$var wire 32 %# D [31:0] $end
$var wire 32 &# E [31:0] $end
$var wire 32 '# F [31:0] $end
$var wire 32 (# G [31:0] $end
$var wire 32 )# H [31:0] $end
$var wire 32 *# I [31:0] $end
$var wire 32 +# J [31:0] $end
$var wire 32 ,# K [31:0] $end
$var wire 32 -# L [31:0] $end
$var wire 32 .# M [31:0] $end
$var wire 32 /# N [31:0] $end
$var wire 32 0# O [31:0] $end
$var wire 32 1# P [31:0] $end
$var wire 4 2# sel [3:0] $end
$var wire 32 3# wOP [31:0] $end
$var wire 32 4# wMNOP [31:0] $end
$var wire 32 5# wMN [31:0] $end
$var wire 32 6# wKL [31:0] $end
$var wire 32 7# wIJKLMNOP [31:0] $end
$var wire 32 8# wIJKL [31:0] $end
$var wire 32 9# wIJ [31:0] $end
$var wire 32 :# wGH [31:0] $end
$var wire 32 ;# wEFGH [31:0] $end
$var wire 32 <# wEF [31:0] $end
$var wire 32 =# wCD [31:0] $end
$var wire 32 ># wABCDEFGH [31:0] $end
$var wire 32 ?# wABCD [31:0] $end
$var wire 32 @# wAB [31:0] $end
$var wire 32 A# out [31:0] $end
$scope module mAB $end
$var wire 32 B# A [31:0] $end
$var wire 32 C# B [31:0] $end
$var wire 32 D# out [31:0] $end
$var wire 1 E# sel $end
$var wire 32 F# temp1 [31:0] $end
$var wire 32 G# temp2 [31:0] $end
$upscope $end
$scope module mABCD $end
$var wire 32 H# A [31:0] $end
$var wire 32 I# out [31:0] $end
$var wire 1 J# sel $end
$var wire 32 K# temp1 [31:0] $end
$var wire 32 L# temp2 [31:0] $end
$var wire 32 M# B [31:0] $end
$upscope $end
$scope module mABCDEFGH $end
$var wire 32 N# A [31:0] $end
$var wire 32 O# out [31:0] $end
$var wire 1 P# sel $end
$var wire 32 Q# temp1 [31:0] $end
$var wire 32 R# temp2 [31:0] $end
$var wire 32 S# B [31:0] $end
$upscope $end
$scope module mCD $end
$var wire 32 T# A [31:0] $end
$var wire 32 U# B [31:0] $end
$var wire 32 V# out [31:0] $end
$var wire 1 W# sel $end
$var wire 32 X# temp1 [31:0] $end
$var wire 32 Y# temp2 [31:0] $end
$upscope $end
$scope module mEF $end
$var wire 32 Z# A [31:0] $end
$var wire 32 [# B [31:0] $end
$var wire 32 \# out [31:0] $end
$var wire 1 ]# sel $end
$var wire 32 ^# temp1 [31:0] $end
$var wire 32 _# temp2 [31:0] $end
$upscope $end
$scope module mEFGH $end
$var wire 32 `# A [31:0] $end
$var wire 32 a# out [31:0] $end
$var wire 1 b# sel $end
$var wire 32 c# temp1 [31:0] $end
$var wire 32 d# temp2 [31:0] $end
$var wire 32 e# B [31:0] $end
$upscope $end
$scope module mGH $end
$var wire 32 f# A [31:0] $end
$var wire 32 g# B [31:0] $end
$var wire 32 h# out [31:0] $end
$var wire 1 i# sel $end
$var wire 32 j# temp1 [31:0] $end
$var wire 32 k# temp2 [31:0] $end
$upscope $end
$scope module mIJ $end
$var wire 32 l# A [31:0] $end
$var wire 32 m# B [31:0] $end
$var wire 32 n# out [31:0] $end
$var wire 1 o# sel $end
$var wire 32 p# temp1 [31:0] $end
$var wire 32 q# temp2 [31:0] $end
$upscope $end
$scope module mIJKL $end
$var wire 32 r# A [31:0] $end
$var wire 32 s# out [31:0] $end
$var wire 1 t# sel $end
$var wire 32 u# temp1 [31:0] $end
$var wire 32 v# temp2 [31:0] $end
$var wire 32 w# B [31:0] $end
$upscope $end
$scope module mIJKLMNOP $end
$var wire 32 x# A [31:0] $end
$var wire 32 y# out [31:0] $end
$var wire 1 z# sel $end
$var wire 32 {# temp1 [31:0] $end
$var wire 32 |# temp2 [31:0] $end
$var wire 32 }# B [31:0] $end
$upscope $end
$scope module mKL $end
$var wire 32 ~# A [31:0] $end
$var wire 32 !$ B [31:0] $end
$var wire 32 "$ out [31:0] $end
$var wire 1 #$ sel $end
$var wire 32 $$ temp1 [31:0] $end
$var wire 32 %$ temp2 [31:0] $end
$upscope $end
$scope module mMN $end
$var wire 32 &$ A [31:0] $end
$var wire 32 '$ B [31:0] $end
$var wire 32 ($ out [31:0] $end
$var wire 1 )$ sel $end
$var wire 32 *$ temp1 [31:0] $end
$var wire 32 +$ temp2 [31:0] $end
$upscope $end
$scope module mMNOP $end
$var wire 32 ,$ A [31:0] $end
$var wire 32 -$ out [31:0] $end
$var wire 1 .$ sel $end
$var wire 32 /$ temp1 [31:0] $end
$var wire 32 0$ temp2 [31:0] $end
$var wire 32 1$ B [31:0] $end
$upscope $end
$scope module mOP $end
$var wire 32 2$ A [31:0] $end
$var wire 32 3$ B [31:0] $end
$var wire 32 4$ out [31:0] $end
$var wire 1 5$ sel $end
$var wire 32 6$ temp1 [31:0] $end
$var wire 32 7$ temp2 [31:0] $end
$upscope $end
$scope module mfinal $end
$var wire 32 8$ A [31:0] $end
$var wire 32 9$ B [31:0] $end
$var wire 32 :$ out [31:0] $end
$var wire 1 ;$ sel $end
$var wire 32 <$ temp1 [31:0] $end
$var wire 32 =$ temp2 [31:0] $end
$upscope $end
$upscope $end
$scope module mfinal $end
$var wire 32 >$ A [31:0] $end
$var wire 32 ?$ B [31:0] $end
$var wire 32 @$ out [31:0] $end
$var wire 1 A$ sel $end
$var wire 32 B$ temp1 [31:0] $end
$var wire 32 C$ temp2 [31:0] $end
$upscope $end
$upscope $end
$scope module taken_interrupt $end
$var wire 30 D$ A [29:0] $end
$var wire 30 E$ B [29:0] $end
$var wire 30 F$ out [29:0] $end
$var wire 1 " sel $end
$var wire 30 G$ temp1 [29:0] $end
$var wire 30 H$ temp2 [29:0] $end
$upscope $end
$scope module user_status_mux $end
$var wire 1 ' clk $end
$var wire 32 I$ d [31:0] $end
$var wire 1 J$ enable $end
$var wire 1 * reset $end
$var reg 32 K$ q [31:0] $end
$upscope $end
$upscope $end
$upscope $end
$enddefinitions $end
#0
$dumpvars
bx K$
0J$
b0 I$
b0 H$
b0 G$
b0 F$
b0 E$
b0 D$
b0 C$
b0 B$
0A$
b0 @$
b0 ?$
b0 >$
b0 =$
b0 <$
0;$
b0 :$
b0 9$
b0 8$
b0 7$
b0 6$
05$
b0 4$
b0 3$
b0 2$
b0 1$
b0 0$
b0 /$
0.$
b0 -$
b0 ,$
b0 +$
b0 *$
0)$
b0 ($
b0 '$
b0 &$
b0 %$
b0 $$
0#$
b0 "$
b0 !$
b0 ~#
b0 }#
b0 |#
b0 {#
0z#
b0 y#
b0 x#
b0 w#
b0 v#
b0 u#
0t#
b0 s#
b0 r#
b0 q#
b0 p#
0o#
b0 n#
b0 m#
b0 l#
b0 k#
b0 j#
0i#
b0 h#
b0 g#
b0 f#
b0 e#
b0 d#
b0 c#
0b#
b0 a#
b0 `#
b0 _#
b0 ^#
0]#
b0 \#
b0 [#
b0 Z#
b0 Y#
b0 X#
0W#
b0 V#
b0 U#
b0 T#
b0 S#
b0 R#
b0 Q#
0P#
b0 O#
b0 N#
b0 M#
b0 L#
b0 K#
0J#
b0 I#
b0 H#
b0 G#
b0 F#
0E#
b0 D#
b0 C#
b0 B#
b0 A#
b0 @#
b0 ?#
b0 >#
b0 =#
b0 <#
b0 ;#
b0 :#
b0 9#
b0 8#
b0 7#
b0 6#
b0 5#
b0 4#
b0 3#
b0 2#
b0 1#
b0 0#
b0 /#
b0 .#
b0 -#
b0 ,#
b0 +#
b0 *#
b0 )#
b0 (#
b0 '#
b0 &#
b0 %#
b0 $#
b0 ##
b0 "#
b0 !#
b0 ~"
0}"
b0 |"
b0 {"
b0 z"
b0 y"
bx00 x"
0w"
bx00 v"
b0 u"
bx00 t"
bx00 s"
b0 r"
b0xxxxxxxx000000xx q"
0p"
b0xxxxxxxx000000xx o"
b0xxxxxxxx000000xx n"
b0 m"
b0xxxxxxxx000000xx l"
0k"
b0xxxxxxxx000000xx j"
b0 i"
b0xxxxxxxx000000xx h"
b0 g"
b0 f"
0e"
b0 d"
b0 c"
b0 b"
b0xxxxxxxx000000xx a"
b0 `"
b0 _"
0^"
b0 ]"
b0 \"
b0 ["
b0 Z"
b0 Y"
0X"
b0 W"
b0 V"
b0 U"
b0 T"
0S"
b0 R"
b0 Q"
b0 P"
b0 O"
b0 N"
0M"
b0 L"
b0 K"
b0 J"
b0 I"
b0 H"
b0 G"
0F"
b0 E"
b0 D"
b0 C"
b0 B"
0A"
b0 @"
b0 ?"
b0 >"
b0 ="
b0 <"
0;"
b0 :"
b0 9"
b0 8"
b0 7"
b0 6"
b0 5"
04"
b0 3"
b0 2"
b0 1"
b0 0"
b0 /"
0."
b0 -"
b0 ,"
b0 +"
b0 *"
0)"
b0 ("
b0 '"
b0 &"
b0 %"
b0 $"
b0 #"
b0 ""
b0 !"
b0 ~
b0 }
b0 |
b0 {
b0 z
b0 y
b0 x
b0xxxxxxxx000000xx w
b0xxxxxxxx000000xx v
bx00 u
b0 t
b0 s
bx00 r
b0 q
b0xxxxxxxx000000xx p
b0 o
b0 n
b0 m
b0 l
b0 k
b0 j
b0 i
b0 h
b0 g
b0 f
b0 e
b0 d
b0 c
b0 b
b0 a
b0 `
b0 _
bx00 ^
b0 ]
b0xxxxxxxx000000xx \
b0 [
b0 Z
b0 Y
b0 X
b0 W
b0 V
b0 U
b0 T
b0 S
b0 R
b0 Q
b0 P
b0 O
b0 N
b0 M
b0 L
b0 K
b0 J
b0 I
b0 H
b0 G
b0 F
b0 E
b0 D
b0 C
b0 B
b0 A
b0 @
1?
1>
b0 =
b0 <
bx ;
b0 :
09
bx 8
b0 7
b0 6
x5
b0 4
b0xxxxxxxx000000xx 3
b0 2
bx 1
b0 0
b0 /
b0 .
x-
0,
b0 +
1*
b0 )
b0 (
0'
0&
0%
0$
bx #
0"
b0 !
$end
#5
b0 v
b0 a"
b0 o"
0-
b0 q"
b0 w
b0 j"
b0 n"
b0 u
b0 s"
b0 v"
b0 l"
b0 x"
b0 1
b0 K$
b0 3
b0 \
b0 p
b0 h"
05
b0 ^
b0 r
b0 t"
b0 #
b0 8
b0 ;
1'
#10
b111111111111111111111111111111 2
b111111111111111111111111111111 :
b111111111111111111111111111111 F$
b111111111111111111111111111111 G$
14"
1^"
1}"
1P#
1z#
1;$
1J$
b111111111111111111111111111111 D$
b1100 t
b1100 2#
b1000000000000 6
b1000000000000 =
0?
0'
b11111111111111111111111111111111 +
b11111111111111111111111111111111 0
b11111111111111111111111111111111 I$
b1100 )
b1100 /
b1100 <
b1100 `
1%
0*
#15
b1111111100000001 !
b1111111100000001 4
b1111111100000001 c
b1111111100000001 @$
b1111111100000001 B$
b1111111100000001 a
b1111111100000001 %"
b1111111100000001 |"
b1111111100000001 >$
b1111111100000001 !#
b1111111100000001 y
b1111111100000001 ]"
b1111111100000001 {"
b1111111100000001 `"
b1111111100000001 v
b1111111100000001 a"
b1111111100000001 o"
b1111111100000001 q"
1-
b1111111100000001 w
b1111111100000001 j"
b1111111100000001 n"
b1111111100000001 l"
b1111111100000001 3
b1111111100000001 \
b1111111100000001 p
b1111111100000001 h"
b11111111111111111111111111111111 1
b11111111111111111111111111111111 K$
1'
#20
0J$
b0 6
b0 =
0'
0%
#25
1'
#30
b100000000000000000001 2
b100000000000000000001 :
b100000000000000000001 F$
b0 G$
b100000000000000000001 H$
19
1"
1,
0'
b100000000000000000001 (
b100000000000000000001 .
b100000000000000000001 E$
b1000000000000000 7
b1000000000000000 ]
b1000000000000000 q
b1000000000000000 i"
1&
#35
b1111111100000011 !
b1111111100000011 4
b1111111100000011 c
b1111111100000011 @$
b1111111100000011 B$
b1111111100000011 a
b1111111100000011 %"
b1111111100000011 |"
b1111111100000011 >$
b1111111100000011 !#
b111111111111111111111111111111 2
b111111111111111111111111111111 :
b111111111111111111111111111111 F$
b1111111100000011 y
b1111111100000011 ]"
b1111111100000011 {"
b111111111111111111111111111111 G$
b0 H$
09
b1111111100000011 `"
0"
b1111111100000011 v
b1111111100000011 a"
b1111111100000011 o"
0-
b1111111100000011 q"
b10000000000000000000100 u
b10000000000000000000100 s"
b10000000000000000000100 v"
b1111111100000011 w
b1111111100000011 j"
b1111111100000011 n"
b10000000000000000000100 x"
b1111111100000011 l"
b10000000000000000000100 ^
b10000000000000000000100 r
b10000000000000000000100 t"
b100000000000000000001 #
b100000000000000000001 8
b100000000000000000001 ;
b1111111100000011 3
b1111111100000011 \
b1111111100000011 p
b1111111100000011 h"
15
1'
#40
0'
b100000000000000000010 (
b100000000000000000010 .
b100000000000000000010 E$
#45
1'
#50
b10000000000000000000100 !
b10000000000000000000100 4
b10000000000000000000100 c
b10000000000000000000100 @$
b10000000000000000000100 B$
b10000000000000000000100 a
b10000000000000000000100 %"
b10000000000000000000100 |"
b10000000000000000000100 >$
b10000000000000000000100 !#
b10000000000000000000100 y
b10000000000000000000100 ]"
b10000000000000000000100 {"
b10000000000000000000100 `"
b10000000000000000000100 v
b10000000000000000000100 a"
b10000000000000000000100 o"
b0 q"
b10000000000000000000100 r"
1."
1F"
1X"
1p"
1J#
1b#
1t#
1.$
b1110 t
b1110 2#
0'
b1110 )
b1110 /
b1110 <
b1110 `
#55
1'
#60
b1000000000000000 !
b1000000000000000 4
b1000000000000000 c
b1000000000000000 @$
b1000000000000000 B$
b1000000000000000 a
b1000000000000000 %"
b1000000000000000 |"
b1000000000000000 >$
b1000000000000000 !#
b1000000000000000 y
b1000000000000000 ]"
b1000000000000000 {"
b1000000000000000 `"
b1000000000000000 w
b1000000000000000 j"
b1000000000000000 n"
b0 u
b0 s"
b0 v"
b1000000000000000 v
b1000000000000000 a"
b1000000000000000 o"
b0 l"
b1000000000000000 m"
b0 x"
b1000000000000000 q"
b0 r"
1)"
1;"
1A"
1M"
1S"
1e"
1k"
1w"
0."
0F"
0X"
0p"
1E#
1W#
1]#
1i#
1o#
1#$
1)$
15$
0J#
0b#
0t#
0.$
b1101 t
b1101 2#
0'
b1101 )
b1101 /
b1101 <
b1101 `
#65
1'
#70
b0 !
b0 4
b0 c
b0 @$
b0 B$
b0 a
b0 %"
b0 |"
b0 >$
b0 !#
b0 y
b0 ]"
b0 {"
b0 `"
b0 v
b0 a"
b0 o"
b0 q"
0,
b0 w
b0 j"
b0 n"
1?
b0 m"
0'
1$
b0 7
b0 ]
b0 q
b0 i"
0&
#75
1-
b1111111100000001 3
b1111111100000001 \
b1111111100000001 p
b1111111100000001 h"
05
1'
#80
b1111111100000001 !
b1111111100000001 4
b1111111100000001 c
b1111111100000001 @$
b1111111100000001 B$
b1111111100000001 a
b1111111100000001 %"
b1111111100000001 |"
b1111111100000001 >$
b1111111100000001 !#
b1111111100000001 y
b1111111100000001 ]"
b1111111100000001 {"
b1111111100000001 `"
b1111111100000001 v
b1111111100000001 a"
b1111111100000001 o"
b1111111100000001 q"
b1111111100000001 w
b1111111100000001 j"
b1111111100000001 n"
b10000000000000000000100 u
b10000000000000000000100 s"
b10000000000000000000100 v"
b1111111100000001 l"
b10000000000000000000100 x"
0)"
0;"
0A"
0M"
0S"
0e"
0k"
0w"
0E#
0W#
0]#
0i#
0o#
0#$
0)$
05$
b1100 t
b1100 2#
0'
b1100 )
b1100 /
b1100 <
b1100 `
#85
1'
#90
b0 !
b0 4
b0 c
b0 @$
b0 B$
b0 a
b0 %"
b0 |"
b0 >$
b0 !#
b0 y
b0 ]"
b0 {"
b0 `"
b0 v
b0 a"
b0 o"
b0 q"
b0 w
b0 j"
b0 n"
b0 u
b0 s"
b0 v"
b0 l"
b0 x"
1)"
1;"
1A"
1M"
1S"
1e"
1k"
1w"
1E#
1W#
1]#
1i#
1o#
1#$
1)$
15$
b1101 t
b1101 2#
0'
b1101 )
b1101 /
b1101 <
b1101 `
