lab3/lab3.2/chopUpDigits_control.vcd
$date
	Mon Sep 16 20:39:28 2024
$end
$version
	Icarus Verilog
$end
$timescale
	1s
$end
$scope module chopUpDigits_control_test $end
$var wire 1 ! write $end
$var wire 1 " select_base $end
$var wire 1 # number_is_0 $end
$var wire 1 $ load_number $end
$var wire 1 % load_index $end
$var wire 1 & get_new $end
$var wire 1 ' done $end
$var reg 1 ( base $end
$var reg 1 ) clk $end
$var reg 5 * digits_ptr [4:0] $end
$var reg 1 + go $end
$var reg 32 , number [31:0] $end
$var reg 1 - reset $end
$var integer 32 . i [31:0] $end
$scope module circuit $end
$var wire 1 ) clk $end
$var wire 5 / digits_ptr [4:0] $end
$var wire 32 0 number [31:0] $end
$var wire 1 - reset $end
$var wire 32 1 write_data [31:0] $end
$var wire 1 ! write $end
$var wire 1 " select_base $end
$var wire 1 # number_is_0 $end
$var wire 32 2 mod_8 [31:0] $end
$var wire 32 3 mod_16 [31:0] $end
$var wire 1 $ load_number $end
$var wire 1 % load_index $end
$var wire 1 & get_new $end
$var wire 32 4 div_8 [31:0] $end
$var wire 32 5 div_16 [31:0] $end
$var wire 5 6 digit_ptr_plus_index [4:0] $end
$var reg 5 7 digits_ptr_reg [4:0] $end
$var reg 5 8 index_reg [4:0] $end
$var reg 32 9 number_reg [31:0] $end
$scope module compareNumber $end
$var wire 32 : A [31:0] $end
$var wire 32 ; B [31:0] $end
$var wire 1 < lt $end
$var wire 1 # eq $end
$upscope $end
$scope module rf $end
$var wire 1 ) clock $end
$var wire 32 = internal_rdData [31:0] $end
$var wire 32 > rdData [31:0] $end
$var wire 5 ? rdNum [4:0] $end
$var wire 1 - reset $end
$var wire 32 @ rsData [31:0] $end
$var wire 5 A rsNum [4:0] $end
$var wire 32 B rtData [31:0] $end
$var wire 5 C rtNum [4:0] $end
$var wire 1 ! rdWriteEnable $end
$var integer 32 D i [31:0] $end
$upscope $end
$upscope $end
$scope module control $end
$var wire 1 ( base $end
$var wire 1 ) clk $end
$var wire 1 ' done $end
$var wire 1 & get_new $end
$var wire 1 + go $end
$var wire 1 % load_index $end
$var wire 1 $ load_number $end
$var wire 1 # number_is_0 $end
$var wire 1 - reset $end
$var wire 1 E sGarbage_next $end
$var wire 1 F sStart_next $end
$var wire 1 G sdone_next $end
$var wire 1 " select_base $end
$var wire 1 H swhile16_next $end
$var wire 1 I swhile8_next $end
$var wire 1 J swrite16_next $end
$var wire 1 K swrite8_next $end
$var wire 1 ! write $end
$var wire 1 L swrite8 $end
$var wire 1 M swrite16 $end
$var wire 1 N swhile8 $end
$var wire 1 O swhile16 $end
$var wire 1 P sdone $end
$var wire 1 Q sStart $end
$var wire 1 R sGarbage $end
$scope module d1 $end
$var wire 1 ) clk $end
$var wire 1 E d $end
$var wire 1 S enable $end
$var wire 1 T reset $end
$var reg 1 R q $end
$upscope $end
$scope module d2 $end
$var wire 1 ) clk $end
$var wire 1 F d $end
$var wire 1 U enable $end
$var wire 1 V reset $end
$var reg 1 Q q $end
$upscope $end
$scope module d3 $end
$var wire 1 ) clk $end
$var wire 1 I d $end
$var wire 1 W enable $end
$var wire 1 X reset $end
$var reg 1 N q $end
$upscope $end
$scope module d4 $end
$var wire 1 ) clk $end
$var wire 1 K d $end
$var wire 1 Y enable $end
$var wire 1 Z reset $end
$var reg 1 L q $end
$upscope $end
$scope module d5 $end
$var wire 1 ) clk $end
$var wire 1 H d $end
$var wire 1 [ enable $end
$var wire 1 \ reset $end
$var reg 1 O q $end
$upscope $end
$scope module d6 $end
$var wire 1 ) clk $end
$var wire 1 J d $end
$var wire 1 ] enable $end
$var wire 1 ^ reset $end
$var reg 1 M q $end
$upscope $end
$scope module d7 $end
$var wire 1 ) clk $end
$var wire 1 G d $end
$var wire 1 _ enable $end
$var wire 1 ` reset $end
$var reg 1 P q $end
$upscope $end
$upscope $end
$upscope $end
$enddefinitions $end
#0
$dumpvars
0`
1_
0^
1]
0\
1[
0Z
1Y
0X
1W
0V
1U
0T
1S
xR
xQ
xP
xO
xN
xM
xL
0K
0J
0I
0H
0G
0F
1E
b100000 D
bz C
bx B
bz A
bx @
bx ?
b0xxxx >
bx =
x<
b0 ;
bx :
bx 9
bx 8
bx 7
bx 6
b0xxxxxxxxxxxxxxxxxxxxxxxxxxxx 5
b0xxxxxxxxxxxxxxxxxxxxxxxxxxxxx 4
b0xxxx 3
b0xxx 2
b0xxxx 1
bx 0
bx /
bx .
1-
bx ,
0+
bx *
0)
x(
x'
x&
x%
x$
x#
x"
x!
$end
#1
0$
0%
b0 4
b0 2
b0 5
b0 3
0!
b0 1
b0 >
b0 6
b0 ?
b0 8
b0 7
0<
1#
b0 9
b0 :
1R
0&
0Q
0N
0L
0O
0"
0M
0'
0P
1)
b0xxxx =
#2
b0 =
0)
b100000 .
0-
#3
1)
#4
1F
0E
0)
0(
b1111 *
b1111 /
b0 ,
b0 0
1+
#5
1$
1%
0R
1&
1Q
1)
#6
1I
0F
0)
0+
#7
1G
0I
0$
0%
1N
0&
0Q
b1111 6
b1111 ?
b1111 7
1)
#8
0)
#9
0N
1'
1P
1)
#10
0)
#11
1)
#12
0)
#13
1)
#14
0)
#15
1)
#16
0)
#17
1)
#18
0)
#19
1)
#20
0)
#21
1)
#22
0)
#23
1)
#24
0)
#25
1)
#26
0)
b10111 .
#27
1)
#28
0)
b100000 .
#29
1)
#30
0G
1F
0)
1(
b10010001101000000 ,
b10010001101000000 0
1+
#31
1$
1%
0'
0P
1&
1Q
1)
#32
1H
0F
0)
0+
#33
0H
0$
0%
1J
b10010001101000 4
b1001000110100 5
0#
b10010001101000000 9
b10010001101000000 :
0&
0Q
1O
1)
#34
0)
#35
1H
0J
1!
1$
1%
1"
1M
0O
1)
#36
0)
#37
b100 1
b100 >
1J
0H
b1001000110 4
b100 2
b100100011 5
b100 3
0!
0$
0%
b10000 6
b10000 ?
b1 8
b1001000110100 9
b1001000110100 :
1O
0"
0M
1)
#38
b100 =
0)
#39
1H
0J
1!
1$
1%
1"
1M
0O
1)
#40
0)
#41
b11 1
b11 >
1J
0H
b100100 4
b11 2
b10010 5
b11 3
0!
0$
0%
b10001 6
b10001 ?
b10 8
b100100011 9
b100100011 :
1O
0"
0M
1)
#42
b11 =
0)
#43
1H
0J
1!
1$
1%
1"
1M
0O
1)
#44
0)
#45
b10 1
b10 >
1J
0H
b10 4
b10 2
b1 5
b10 3
0!
0$
0%
b10010 6
b10010 ?
b11 8
b10010 9
b10010 :
1O
0"
0M
1)
#46
b10 =
0)
#47
1H
0J
1!
1$
1%
1"
1M
0O
1)
#48
0)
#49
b1 1
b1 >
1J
0H
b0 4
b1 2
b0 5
b1 3
0!
0$
0%
b10011 6
b10011 ?
b100 8
b1 9
b1 :
1O
0"
0M
1)
#50
b1 =
0)
#51
1H
0J
1!
1$
1%
1"
1M
0O
1)
#52
0)
#53
1G
b0 1
b0 >
0H
b0 2
b0 3
0!
0$
0%
b10100 6
b10100 ?
b101 8
1#
b0 9
b0 :
1O
0"
0M
1)
#54
b0 =
0)
#55
1'
1P
0O
1)
